{
  "success": true,
  "dataPoints": [{
      "year": 2018,
      "month": 1,
      "price_oil": 64.73
    },
    {
      "year": 2018,
      "month": 2,
      "price_oil": 61.64
    },
    {
      "year": 2018,
      "month": 3,
      "price_oil": 64.94
    },
    {
      "year": 2018,
      "month": 4,
      "price_oil": 68.57
    },
    {
      "year": 2018,
      "month": 5,
      "price_oil": 67.04
    },
    {
      "year": 2018,
      "month": 6,
      "price_oil": 74.15
    },
    {
      "year": 2018,
      "month": 7,
      "price_oil": 68.76
    },
    {
      "year": 2018,
      "month": 8,
      "price_oil": 69.8
    },
    {
      "year": 2018,
      "month": 9,
      "price_oil": 73.25
    },
    {
      "year": 2018,
      "month": 10,
      "price_oil": 65.31
    },
    {
      "year": 2018,
      "month": 11,
      "price_oil": 50.93
    },
    {
      "year": 2018,
      "month": 12,
      "price_oil": 45.41
    }
  ]
}