{
  "success": true,
  "dataPoints": [{
      "year": 2016,
      "month": 1,
      "ex": 130202153
    },
    {
      "year": 2016,
      "month": 2,
      "ex": 162529985
    },
    {
      "year": 2016,
      "month": 3,
      "ex": 155613080
    },
    {
      "year": 2016,
      "month": 4,
      "ex": 140550659
    },
    {
      "year": 2016,
      "month": 5,
      "ex": 100566129
    },
    {
      "year": 2016,
      "month": 6,
      "ex": 91375096
    },
    {
      "year": 2016,
      "month": 7,
      "ex": 101249651
    },
    {
      "year": 2016,
      "month": 8,
      "ex": 113910590
    },
    {
      "year": 2016,
      "month": 9,
      "ex": 121072253
    },
    {
      "year": 2016,
      "month": 10,
      "ex": 152303574
    },
    {
      "year": 2016,
      "month": 11,
      "ex": 158236465
    },
    {
      "year": 2016,
      "month": 12,
      "ex": 174235866
    }
  ]
}