{
   "success":true,
   "dataPoints":[
   {
      "export_ch":159274743
   },
   {
      "export_ch":169515229
   },
   {
      "export_ch":157674056
   },
   {
      "export_ch":95614408
   },
   {
      "export_ch":99924265
   },
   {
      "export_ch":85669883
   },
   {
      "export_ch":94981143
   },
   {
      "export_ch":104256329
   },
   {
      "export_ch":119424865
   },
   {
      "export_ch":140065951
   },
   {
      "export_ch":132341617
   },
   {
      "export_ch":169562489
   },
   {
      "export_ch":130373939
   },
   {
      "export_ch":150427460
   },
   {
      "export_ch":140736892
   },
   {
      "export_ch":87394944
   },
   {
      "export_ch":109998177
   },
   {
      "export_ch":144184113
   },
   {
      "export_ch":173221157
   },
   {
      "export_ch":189448041
   },
   {
      "export_ch":157622514
   },
   {
      "export_ch":169507286
   },
   {
      "export_ch":169502628
   },
   {
      "export_ch":159824286
   },
   {
      "export_ch":130202153
   },
   {
      "export_ch":162529985
   },
   {
      "export_ch":155613080
   },
   {
      "export_ch":140550659
   },
   {
      "export_ch":100566129
   },
   {
      "export_ch":91375096
   },
   {
      "export_ch":101249651
   },
   {
      "export_ch":113910590
   },
   {
      "export_ch":121072253
   },
   {
      "export_ch":152303574
   },
   {
      "export_ch":158236465
   },
   {
      "export_ch":174235866
   },
   {
      "export_ch":150820175
   },
   {
      "export_ch":166257146
   },
   {
      "export_ch":175681127
   },
   {
      "export_ch":132715912
   },
   {
      "export_ch":105306611
   },
   {
      "export_ch":101479464
   },
   {
      "export_ch":111229606
   },
   {
      "export_ch":150104621
   },
   {
      "export_ch":143684696
   },
   {
      "export_ch":156050411
   },
   {
      "export_ch":178425819
   },
   {
      "export_ch":166224648
   },
   {
      "export_ch":100605181
   },
   {
      "export_ch":137958325
   },
   {
      "export_ch":103609548
   },
   {
      "export_ch":149055411
   },
   {
      "export_ch":130043201
   },
   {
      "export_ch":112436474
   },
   {
      "export_ch":121007897
   },
   {
      "export_ch":126312719
   },
   {
      "export_ch":107892753
   },
   {
      "export_ch":153166851
   },
   {
      "export_ch":287743998
   },
   {
      "export_ch":110634612
   }
]
}