{
   "success":true,
   "dataPoints":[
   {
      "rubber":31.9782484
   },
   {
      "rubber":33.2101179
   },
   {
      "rubber":31.7641627
   },
   {
      "rubber":25.414808
   },
   {
      "rubber":26.6095076
   },
   {
      "rubber":25.5507052
   },
   {
      "rubber":30.5196188
   },
   {
      "rubber":28.6913663
   },
   {
      "rubber":31.1135036
   },
   {
      "rubber":32.5229515
   },
   {
      "rubber":32.6839773
   },
   {
      "rubber":34.7517136
   },
   {
      "rubber":36.5645433
   },
   {
      "rubber":35.3580467
   },
   {
      "rubber":36.7761909
   },
   {
      "rubber":30.8095321
   },
   {
      "rubber":28.2585057
   },
   {
      "rubber":26.5221187
   },
   {
      "rubber":33.2233845
   },
   {
      "rubber":32.8284022
   },
   {
      "rubber":34.7091923
   },
   {
      "rubber":40.4737703
   },
   {
      "rubber":41.5443574
   },
   {
      "rubber":47.613754
   },
   {
      "rubber":39.0453719
   },
   {
      "rubber":39.6801316
   },
   {
      "rubber":39.0162358
   },
   {
      "rubber":29.1857292
   },
   {
      "rubber":29.5439102
   },
   {
      "rubber":30.1904974
   },
   {
      "rubber":31.743159
   },
   {
      "rubber":33.1971094
   },
   {
      "rubber":35.9274561
   },
   {
      "rubber":37.804372
   },
   {
      "rubber":37.6066991
   },
   {
      "rubber":39.1181847
   },
   {
      "rubber":33.928821
   },
   {
      "rubber":35.1328449
   },
   {
      "rubber":38.5106371
   },
   {
      "rubber":32.1020727
   },
   {
      "rubber":34.6757954
   },
   {
      "rubber":30.7904318
   },
   {
      "rubber":34.617472
   },
   {
      "rubber":35.5486942
   },
   {
      "rubber":32.9467607
   },
   {
      "rubber":34.4049142
   },
   {
      "rubber":33.185524
   },
   {
      "rubber":33.348434
   },
   {
      "rubber":29.9447692
   },
   {
      "rubber":33.9654994
   },
   {
      "rubber":35.784068
   },
   {
      "rubber":31.8192062
   },
   {
      "rubber":27.0399972
   },
   {
      "rubber":26.456972
   },
   {
      "rubber":27.2154716
   },
   {
      "rubber":30.1004369
   },
   {
      "rubber":29.6772008
   },
   {
      "rubber":31.1741767
   },
   {
      "rubber":32.288306
   },
   {
      "rubber":34.4271379
   }
]
}