{
  "success": true,
  "dataPoints": [{
      "year": 2018,
      "month": 1,
      "ex": 19545134
    },
    {
      "year": 2018,
      "month": 2,
      "ex": 21339940
    },
    {
      "year": 2018,
      "month": 3,
      "ex": 14989021
    },
    {
      "year": 2018,
      "month": 4,
      "ex": 23861835
    },
    {
      "year": 2018,
      "month": 5,
      "ex": 14499719
    },
    {
      "year": 2018,
      "month": 6,
      "ex": 15289697
    },
    {
      "year": 2018,
      "month": 7,
      "ex": 16624987
    },
    {
      "year": 2018,
      "month": 8,
      "ex": 18628705
    },
    {
      "year": 2018,
      "month": 9,
      "ex": 16877988
    },
    {
      "year": 2018,
      "month": 10,
      "ex": 16859754
    },
    {
      "year": 2018,
      "month": 11,
      "ex": 36391008
    },
    {
      "year": 2018,
      "month": 12,
      "ex": 19892167
    }
  ]
}