{
  "success": true,
  "dataPoints": [{
      "year": 2015,
      "month": 1,
      "ex": 16412084
    },
    {
      "year": 2015,
      "month": 2,
      "ex": 16865933
    },
    {
      "year": 2015,
      "month": 3,
      "ex": 17245689
    },
    {
      "year": 2015,
      "month": 4,
      "ex": 12890932
    },
    {
      "year": 2015,
      "month": 5,
      "ex": 11078393
    },
    {
      "year": 2015,
      "month": 6,
      "ex": 12567155
    },
    {
      "year": 2015,
      "month": 7,
      "ex": 14778247
    },
    {
      "year": 2015,
      "month": 8,
      "ex": 12675868
    },
    {
      "year": 2015,
      "month": 9,
      "ex": 13171940
    },
    {
      "year": 2015,
      "month": 10,
      "ex": 11540343
    },
    {
      "year": 2015,
      "month": 11,
      "ex": 11921712
    },
    {
      "year": 2015,
      "month": 12,
      "ex": 14010777
    }
  ]
}