{
  "success": true,
  "dataPoints": [{
      "year": 2017,
      "month": 1,
      "ex": 45562935
    },
    {
      "year": 2017,
      "month": 2,
      "ex": 45974326
    },
    {
      "year": 2017,
      "month": 3,
      "ex": 51126234
    },
    {
      "year": 2017,
      "month": 4,
      "ex": 42381366
    },
    {
      "year": 2017,
      "month": 5,
      "ex": 48900589
    },
    {
      "year": 2017,
      "month": 6,
      "ex": 49252400
    },
    {
      "year": 2017,
      "month": 7,
      "ex": 54243988
    },
    {
      "year": 2017,
      "month": 8,
      "ex": 52626620
    },
    {
      "year": 2017,
      "month": 9,
      "ex": 49939511
    },
    {
      "year": 2017,
      "month": 10,
      "ex": 55393898
    },
    {
      "year": 2017,
      "month": 11,
      "ex": 62616274
    },
    {
      "year": 2017,
      "month": 12,
      "ex": 69648426
    }
  ]
}